-162.0,19.871999740600586
-8.0,40.0
-27.0,60.03200149536133
-39.0,80.14900207519531
-47.0,100.21700286865234
-53.0,120.33300018310547
-57.0,140.447998046875
-60.0,160.51600646972656
-62.0,180.63400268554688
-63.0,200.64700317382812
-66.0,220.76300048828125
-66.0,240.8780059814453
-66.0,260.9419860839844
-66.0,281.05999755859375
-67.0,301.1239929199219
-68.0,321.239013671875
-68.0,341.3550109863281
-69.0,361.468994140625
-68.0,381.58599853515625
-69.0,401.64898681640625
-69.0,421.7650146484375
-69.0,441.8800048828125
-69.0,461.94500732421875
-69.0,482.06298828125
-69.0,502.12799072265625
-68.0,522.14501953125
-69.0,542.2750244140625
-69.0,562.3389892578125
-69.0,582.4530029296875
-69.0,602.5170288085938
-69.0,622.6329956054688
-69.0,642.7479858398438
-69.0,662.8140258789062
-69.0,682.8369750976562
-69.0,702.9130249023438
-69.0,723.0269775390625
-69.0,743.1439819335938
-69.0,763.208984375
-69.0,783.3250122070312
-69.0,803.3900146484375
-69.0,823.5050048828125
-69.0,843.531982421875
-69.0,863.6079711914062
-69.0,883.7230224609375
-69.0,903.7880249023438
-69.0,923.906005859375
-69.0,944.02099609375
-69.0,964.0859985351562
-69.0,984.2020263671875
